{
  "description": "Contrib Debian Jessie base box, built using contrib sources",
  "variables": {
      "box_version": "8.11.0",
      "box_changelog": "* new point release",
      "atlas_token": "{{env `ATLAS_TOKEN`}}"
    },
  "builders": [
    {
      "boot_command": [
        "<esc><wait>",
        "install <wait>",
        "preseed/url=http://{{ .HTTPIP }}:{{ .HTTPPort }}/vanilla-debian-8-jessie-preseed.cfg <wait>",
        "debian-installer=en_US <wait>",
        "auto <wait>",
        "locale=en_US <wait>",
        "kbd-chooser/method=us <wait>",
        "netcfg/get_hostname={{ .Name }} <wait>",
        "netcfg/get_domain=vagrantup.com <wait>",
        "fb=false <wait>",
        "debconf/frontend=noninteractive <wait>",
        "console-setup/ask_detect=false <wait>",
        "console-keymaps-at/keymap=us <wait>",
        "keyboard-configuration/xkb-keymap=us <wait>",
        "<enter><wait>"
      ],
      "disk_size": "20280",
      "disk_interface": "virtio",
      "headless": true,
      "http_directory": "http",
      "iso_checksum": "ea799ed959d77359783e7922ed4c94a7437b083a4ce6f09e9fe41a7af6ba60df",
      "iso_url": "http://cdimage.debian.org/mirror/cdimage/archive/8.11.0/amd64/iso-cd/debian-8.11.0-amd64-netinst.iso",
      "shutdown_command": "sudo /sbin/halt -p",
      "ssh_password": "vagrant",
      "ssh_username": "vagrant",
      "ssh_port": "22",
      "ssh_wait_timeout": "10000s",
      "type": "qemu",
      "qemuargs": [[ "-m", "1024M" ],[ "-smp", "2" ]],
      "accelerator": "kvm",
      "vm_name": "contrib-jessie",
      "output_directory": "contrib-jessie.build",
      "format": "raw"
    }
  ],
  "provisioners": [
    {
      "type": "shell",
      "pause_before": "5s",
      "execute_command": "echo 'vagrant'| {{.Vars}} sudo --preserve-env --stdin sh '{{.Path}}'",
      "environment_vars": [
         "VAGRANT_BUILDER_FS=/",
         "VAGRANT_BUILDER_HOSTNAME=contrib-jessie"
      ],
      "scripts": [
        "../helpers/vagrant-setup",
        "scripts/vb-guest-additions.sh",
        "scripts/minimize.sh"
      ]
    }
  ]
}
