{
  "description": "Vanilla Debian Stretch base box",
  "variables": {
    "box_version": "9.5.0",
    "box_changelog": "* New point release"
    },
  "builders": [
    {
      "boot_command": [
        "<esc><wait>",
        "install <wait>",
        "preseed/url=http://{{ .HTTPIP }}:{{ .HTTPPort }}/stretch-preseed.cfg <wait>",
        "auto <wait>",
        "locale=en_US <wait>",
        "netcfg/get_hostname={{ .Name }} <wait>",
        "netcfg/get_domain=localdomain <wait>",
        "debconf/frontend=noninteractive <wait>",
        "console-setup/ask_detect=false <wait>",
        "kbd-chooser/method=us <wait>",
        "console-keymaps-at/keymap=us <wait>",
        "keyboard-configuration/xkb-keymap=us <wait>",
        "net.ifnames=0 <wait>",
        "<enter><wait>"
      ],
      "disk_size": "20280",
      "disk_interface": "virtio",
      "headless": true,
      "http_directory": "http",
      "iso_checksum": "71c7e9eb292acc880f84605b1ca2b997f25737fe0a43fc9586f61d35cd2eb43b",
      "iso_url": "https://cdimage.debian.org/mirror/cdimage/archive/9.13.0/amd64/iso-cd/debian-9.13.0-amd64-netinst.iso",
      "shutdown_command": "sudo /sbin/halt -p",
      "ssh_password": "vagrant",
      "ssh_username": "vagrant",
      "ssh_port": "22",
      "ssh_wait_timeout": "10000s",
      "type": "qemu",
      "qemuargs": [[ "-m", "1024M" ],[ "-smp", "2" ]],
      "accelerator": "kvm",
      "vm_name": "stretch",
      "output_directory": "stretch.build",
      "format": "raw"
    }
  ],
  "provisioners": [
    {
      "type": "shell",
      "pause_before": "5s",
      "execute_command": "echo 'vagrant'| {{.Vars}} sudo --preserve-env --stdin sh '{{.Path}}'",
      "environment_vars": [
         "VAGRANT_BUILDER_FS=/"
      ],
      "scripts": [
        "../helpers/vagrant-setup",
        "scripts/minimize.sh"
      ]
    }
  ]
}
